{
    "server": {
        "browser": "safari",
        "baseDir": "./root"
    },
    "dest": {
        "root": "./root/",
        "html": "",
        "js": "assets/",
        "styles": "assets/",
        "images": "assets/",
        "copy": "assets/",
        "clean": [
            "assets/*"
        ]
    },
    "src": {
        "root": "./dev",
        "styles": "scss/*.scss",
        "js": "js/*.js",
        "images": "img/**/*.*",
        "html": "html/*.html",
        "copy": [
            "bower/modernizr/modernizr.js",
            "dev/fnt/*.{woff, woff2, eot, svg}",
            "bower/tooltipster/dist/css/tooltipster.bundle.min.css"
        ]
    },
    "watch": {
        "root": "./dev",
        "html": "html/**/*.html",
        "js": "js/**/*.js",
        "styles": "scss/**/*.scss",
        "images": "img/**/*.{gif,jpg,png,svg}"
    }
}
